[
	{
		"name": "03/2019",
		"value": 1462
	},
	{
		"name": "04/2019",
		"value": 2037
	},
	{
		"name": "05/2019",
		"value": 2308
	},
	{
		"name": "06/2019",
		"value": 6276
	},
	{
		"name": "07/2019",
		"value": 7118
	},
	{
		"name": "08/2019",
		"value": 7682
  },
  {
		"name": "09/2019",
		"value": 8090
	},
	{
		"name": "10/2019",
		"value": 8404
	},
	{
		"name": "11/2019",
		"value": 8801
	},
	{
		"name": "12/2019",
		"value": 9137
	},
	{
		"name": "01/2020",
		"value": 9272
	}
]